# Nmap 7.93 scan initiated Thu Feb 23 20:00:31 2023 as: nmap -oN /home/kali/secondhostscan.txt -sP 129.25.0.0/16
Nmap scan report for cadprinter01.psd.drexel.edu (129.25.4.165)
Host is up (0.0087s latency).
Nmap scan report for ois02.provost.drexel.edu (129.25.4.168)
Host is up (0.0095s latency).
Nmap scan report for ac1.chemistry.drexel.edu (129.25.6.39)
Host is up (0.0086s latency).
Nmap scan report for memhessprinter.mem.drexel.edu (129.25.6.216)
Host is up (0.0063s latency).
Nmap scan report for duhep2.physics.drexel.edu (129.25.7.17)
Host is up (0.0071s latency).
Nmap scan report for duphy4.physics.drexel.edu (129.25.7.56)
Host is up (0.12s latency).
Nmap scan report for jupiter.physics.drexel.edu (129.25.7.193)
Host is up (0.0044s latency).
Nmap scan report for ilab4.physics.drexel.edu (129.25.7.214)
Host is up (0.065s latency).
Nmap scan report for canon316.ia.drexel.edu (129.25.7.229)
Host is up (0.0075s latency).
Nmap scan report for dpsfiles.psd.drexel.edu (129.25.8.166)
Host is up (0.0083s latency).
Nmap scan report for labserver2.physics.drexel.edu (129.25.8.228)
Host is up (0.0069s latency).
Nmap scan report for alab.physics.drexel.edu (129.25.8.242)
Host is up (0.0075s latency).
Nmap scan report for labserver.physics.drexel.edu (129.25.9.28)
Host is up (0.010s latency).
Nmap scan report for hr7color.vp-admin.drexel.edu (129.25.9.74)
Host is up (0.023s latency).
Nmap scan report for cc10.chemistry.drexel.edu (129.25.9.200)
Host is up (0.0070s latency).
Nmap scan report for wkdu-endec.student-org.drexel.edu (129.25.10.38)
Host is up (0.0096s latency).
Nmap scan report for wkdu-recordings.student-org.drexel.edu (129.25.10.42)
Host is up (0.019s latency).
Nmap scan report for du-ia-infoserv22.ia.drexel.edu (129.25.10.67)
Host is up (0.0049s latency).
Nmap scan report for nulab1.physics.drexel.edu (129.25.10.117)
Host is up (0.0066s latency).
Nmap scan report for srvpcanonws.vp-admin.drexel.edu (129.25.10.118)
Host is up (0.0062s latency).
Nmap scan report for combustion.mem.drexel.edu (129.25.10.146)
Host is up (0.0092s latency).
Nmap scan report for wkdu-stl-studio.student-org.drexel.edu (129.25.10.196)
Host is up (0.017s latency).
Nmap scan report for nulab2.physics.drexel.edu (129.25.10.234)
Host is up (0.0083s latency).
Nmap scan report for creesekeybox.student-life.drexel.edu (129.25.11.200)
Host is up (0.051s latency).
Nmap scan report for hris2.vp-admin.drexel.edu (129.25.12.132)
Host is up (0.0073s latency).
Nmap scan report for lanesw.physics.drexel.edu (129.25.12.134)
Host is up (0.015s latency).
Nmap scan report for hpv1910.physics.drexel.edu (129.25.12.225)
Host is up (0.010s latency).
Nmap scan report for nuhpv1910.physics.drexel.edu (129.25.13.4)
Host is up (0.0059s latency).
Nmap scan report for aw-svl-web02.westphal.drexel.edu (129.25.13.10)
Host is up (0.0056s latency).
Nmap scan report for aw-svl-web01.westphal.drexel.edu (129.25.13.12)
Host is up (0.0054s latency).
Nmap scan report for ehs-400.safetyandhealth.drexel.edu (129.25.13.40)
Host is up (0.0082s latency).
Nmap scan report for n1-15-7.dhcp.drexel.edu (129.25.15.7)
Host is up (0.014s latency).
Nmap scan report for n1-24-32.dhcp.drexel.edu (129.25.24.32)
Host is up (0.011s latency).
Nmap scan report for n1-25-132.dhcp.drexel.edu (129.25.25.132)
Host is up (0.0090s latency).
Nmap scan report for n1-25-144.dhcp.drexel.edu (129.25.25.144)
Host is up (0.027s latency).
Nmap scan report for asme.mem.drexel.edu (129.25.56.85)
Host is up (0.0070s latency).
Nmap scan report for mcmblab.mem.drexel.edu (129.25.56.103)
Host is up (0.0058s latency).
Nmap scan report for nsfws.ece.drexel.edu (129.25.56.121)
Host is up (0.0069s latency).
Nmap scan report for licensewatcher.coe.drexel.edu (129.25.56.122)
Host is up (0.0056s latency).
Nmap scan report for solar.ece.drexel.edu (129.25.56.129)
Host is up (0.0086s latency).
Nmap scan report for vlsi.ece.drexel.edu (129.25.56.130)
Host is up (0.094s latency).
Nmap scan report for biomech.mem.drexel.edu (129.25.56.132)
Host is up (0.0067s latency).
Nmap scan report for cedipes.coe.drexel.edu (129.25.56.150)
Host is up (0.0054s latency).
Nmap scan report for mom-seminar.mem.drexel.edu (129.25.56.201)
Host is up (0.0088s latency).
Nmap scan report for asce.cae.drexel.edu (129.25.56.205)
Host is up (0.0095s latency).
Nmap scan report for research.coe.drexel.edu (129.25.56.206)
Host is up (0.010s latency).
Nmap scan report for rise.coe.drexel.edu (129.25.56.207)
Host is up (0.0098s latency).
Nmap scan report for macro.materials.drexel.edu (129.25.56.210)
Host is up (0.011s latency).
Nmap scan report for biopolymers.mem.drexel.edu (129.25.56.211)
Host is up (0.010s latency).
Nmap scan report for 129.25.57.1
Host is up (0.0048s latency).
Nmap scan report for sscel.cae.drexel.edu (129.25.57.9)
Host is up (0.0073s latency).
Nmap scan report for rubegoldberg.coe.drexel.edu (129.25.57.23)
Host is up (0.013s latency).
Nmap scan report for lcss.cae.drexel.edu (129.25.57.24)
Host is up (0.0044s latency).
Nmap scan report for sciencesaturdays.materials.drexel.edu (129.25.57.25)
Host is up (0.011s latency).
Nmap scan report for wireless.ece.drexel.edu (129.25.57.45)
Host is up (0.0099s latency).
Nmap scan report for labs.coe.drexel.edu (129.25.57.49)
Host is up (0.0036s latency).
Nmap scan report for darrl.cae.drexel.edu (129.25.57.50)
Host is up (0.0049s latency).
Nmap scan report for bmesmainhp.biomed.drexel.edu (129.25.57.58)
Host is up (0.012s latency).
Nmap scan report for misl.ece.drexel.edu (129.25.57.59)
Host is up (0.013s latency).
Nmap scan report for microbes.cae.drexel.edu (129.25.57.60)
Host is up (0.0077s latency).
Nmap scan report for multiscalemodeling.mem.drexel.edu (129.25.57.61)
Host is up (0.0069s latency).
Nmap scan report for computational.materials.drexel.edu (129.25.57.62)
Host is up (0.0081s latency).
Nmap scan report for ice.ece.drexel.edu (129.25.57.77)
Host is up (0.0079s latency).
Nmap scan report for swre.cae.drexel.edu (129.25.57.103)
Host is up (0.0058s latency).
Nmap scan report for tamg.mem.drexel.edu (129.25.57.104)
Host is up (0.0046s latency).
Nmap scan report for dlux.cae.drexel.edu (129.25.57.105)
Host is up (0.0062s latency).
Nmap scan report for dneel.ece.drexel.edu (129.25.57.124)
Host is up (0.012s latency).
Nmap scan report for vistadv.cae.drexel.edu (129.25.57.127)
Host is up (0.013s latency).
Nmap scan report for citizenscientist.cae.drexel.edu (129.25.57.128)
Host is up (0.0084s latency).
Nmap scan report for lidratool.cae.drexel.edu (129.25.57.129)
Host is up (0.0085s latency).
Nmap scan report for films.materials.drexel.edu (129.25.57.136)
Host is up (0.0091s latency).
Nmap scan report for powder.materials.drexel.edu (129.25.57.171)
Host is up (0.0058s latency).
Nmap scan report for bio.materials.drexel.edu (129.25.57.173)
Host is up (0.0066s latency).
Nmap scan report for ysun.mem.drexel.edu (129.25.57.210)
Host is up (0.011s latency).
Nmap scan report for helpdesk.coe.drexel.edu (129.25.57.211)
Host is up (0.010s latency).
Nmap scan report for tech.coe.drexel.edu (129.25.57.214)
Host is up (0.0099s latency).
Nmap scan report for seniordesign.mem.drexel.edu (129.25.57.240)
Host is up (0.0080s latency).
Nmap scan report for 129.25.57.242
Host is up (0.061s latency).
Nmap scan report for thermofluidics.mem.drexel.edu (129.25.58.5)
Host is up (0.0077s latency).
Nmap scan report for dpac.ece.drexel.edu (129.25.58.6)
Host is up (0.0074s latency).
Nmap scan report for cdiff.ece.drexel.edu (129.25.58.9)
Host is up (0.0073s latency).
Nmap scan report for 129.25.58.12
Host is up (0.0078s latency).
Nmap scan report for ncel.mse.drexel.edu (129.25.58.54)
Host is up (0.011s latency).
Nmap scan report for weather2.coe.drexel.edu (129.25.58.83)
Host is up (0.012s latency).
Nmap scan report for bseg.cae.drexel.edu (129.25.58.109)
Host is up (0.0074s latency).
Nmap scan report for pod-cbe-281.coe.drexel.edu (129.25.58.123)
Host is up (0.0099s latency).
Nmap scan report for hubo.ece.drexel.edu (129.25.58.216)
Host is up (0.010s latency).
Nmap scan report for pod-hill.coe.drexel.edu (129.25.58.234)
Host is up (0.0074s latency).
Nmap scan report for pod-dean.coe.drexel.edu (129.25.58.236)
Host is up (0.012s latency).
Nmap scan report for mail.coe.drexel.edu (129.25.59.19)
Host is up (0.011s latency).
Nmap scan report for pogo.ece.drexel.edu (129.25.59.21)
Host is up (0.011s latency).
Nmap scan report for 129.25.59.48
Host is up (0.0093s latency).
Nmap scan report for bonecrusher.ece.drexel.edu (129.25.59.65)
Host is up (0.0085s latency).
Nmap scan report for faculty.coe.drexel.edu (129.25.59.82)
Host is up (0.0080s latency).
Nmap scan report for courses.coe.drexel.edu (129.25.59.198)
Host is up (0.012s latency).
Nmap scan report for mse.drexel.edu (129.25.59.199)
Host is up (0.0095s latency).
Nmap scan report for phillymaterials.mse.drexel.edu (129.25.59.215)
Host is up (0.011s latency).
Nmap scan report for mems.mem.drexel.edu (129.25.59.233)
Host is up (0.0079s latency).
Nmap scan report for cepes1.ece.drexel.edu (129.25.60.37)
Host is up (0.012s latency).
Nmap scan report for ece.drexel.edu (129.25.60.56)
Host is up (0.012s latency).
Nmap scan report for lists.coe.drexel.edu (129.25.60.85)
Host is up (0.0069s latency).
Nmap scan report for machineshop.coe.drexel.edu (129.25.60.149)
Host is up (0.0036s latency).
Nmap scan report for mse-virt1.mse.drexel.edu (129.25.61.40)
Host is up (0.022s latency).
Nmap scan report for composite.materials.drexel.edu (129.25.61.45)
Host is up (0.0099s latency).
Nmap scan report for www.cae.drexel.edu (129.25.61.47)
Host is up (0.0091s latency).
Nmap scan report for sk346.materials.drexel.edu (129.25.61.48)
Host is up (0.0093s latency).
Nmap scan report for conference1.materials.drexel.edu (129.25.61.49)
Host is up (0.019s latency).
Nmap scan report for conference2.materials.drexel.edu (129.25.61.50)
Host is up (0.0039s latency).
Nmap scan report for nano.materials.drexel.edu (129.25.61.65)
Host is up (0.0085s latency).
Nmap scan report for mem.drexel.edu (129.25.61.120)
Host is up (0.0071s latency).
Nmap scan report for coe.drexel.edu (129.25.61.139)
Host is up (0.12s latency).
Nmap scan report for volos.coe.drexel.edu (129.25.61.216)
Host is up (0.010s latency).
Nmap scan report for srg-supplies.mse.drexel.edu (129.25.61.228)
Host is up (0.0082s latency).
Nmap scan report for sensor.mse.drexel.edu (129.25.61.242)
Host is up (0.061s latency).
Nmap scan report for mtdg.mse.drexel.edu (129.25.61.243)
Host is up (0.060s latency).
Nmap scan report for fibers.coe.drexel.edu (129.25.61.252)
Host is up (0.0061s latency).
Nmap scan report for max.materials.drexel.edu (129.25.61.253)
Host is up (0.0060s latency).
Nmap scan report for coecore-copier.decc.drexel.edu (129.25.62.56)
Host is up (0.013s latency).
Nmap scan report for coess-copier.decc.drexel.edu (129.25.62.62)
Host is up (0.014s latency).
Nmap scan report for fmweb1.coe.drexel.edu (129.25.62.79)
Host is up (0.011s latency).
Nmap scan report for cheminformatics.chemeng.drexel.edu (129.25.62.83)
Host is up (0.0078s latency).
Nmap scan report for n1-130-159.dhcp.drexel.edu (129.25.130.159)
Host is up (0.055s latency).
Nmap scan report for n1-131-34.dhcp.drexel.edu (129.25.131.34)
Host is up (0.0090s latency).
Nmap scan report for n1-131-38.dhcp.drexel.edu (129.25.131.38)
Host is up (0.0084s latency).
Nmap scan report for n1-131-56.dhcp.drexel.edu (129.25.131.56)
Host is up (0.010s latency).
Nmap scan report for citlic.library.drexel.edu (129.25.131.121)
Host is up (0.019s latency).
Nmap scan report for lxu-uniprint.library.drexel.edu (129.25.131.132)
Host is up (0.0054s latency).
Nmap scan report for services.library.drexel.edu (129.25.131.139)
Host is up (0.0084s latency).
Nmap scan report for lexisprnt01.law.drexel.edu (129.25.131.190)
Host is up (0.0052s latency).
Nmap scan report for n1-135-23.dhcp.drexel.edu (129.25.135.23)
Host is up (0.0048s latency).
Nmap scan report for lx1-prt02.library.drexel.edu (129.25.135.232)
Host is up (0.0096s latency).
Nmap scan report for display.soe.drexel.edu (129.25.139.57)
Host is up (0.0093s latency).
Nmap scan report for evie.soe.drexel.edu (129.25.139.59)
Host is up (0.012s latency).
Nmap scan report for 71-1a10-print01.westphal.drexel.edu (129.25.139.106)
Host is up (0.0039s latency).
Nmap scan report for klinelaw01.law.drexel.edu (129.25.155.166)
Host is up (0.14s latency).
Nmap scan report for display-130.law.drexel.edu (129.25.155.193)
Host is up (0.0057s latency).
Nmap scan report for clash.biomed.drexel.edu (129.25.163.212)
Host is up (0.0092s latency).
Nmap scan report for elvis.biomed.drexel.edu (129.25.163.214)
Host is up (0.0078s latency).
Nmap scan report for canon-mf8580.publichealth.drexel.edu (129.25.171.202)
Host is up (0.0085s latency).
Nmap scan report for grow.publichealth.drexel.edu (129.25.171.203)
Host is up (0.0059s latency).
Nmap scan report for dsplr-f01.publichealth.drexel.edu (129.25.187.194)
Host is up (0.0081s latency).
Nmap scan report for dsplr-f02.publichealth.drexel.edu (129.25.187.195)
Host is up (0.012s latency).
Nmap scan report for dsplr-f03.publichealth.drexel.edu (129.25.187.196)
Host is up (0.022s latency).
Nmap scan report for dsplr-f05.publichealth.drexel.edu (129.25.187.198)
Host is up (0.0042s latency).
Nmap scan report for dsplr-f06.publichealth.drexel.edu (129.25.187.199)
Host is up (0.015s latency).
Nmap scan report for kplstingar01.irt.drexel.edu (129.25.194.1)
Host is up (0.027s latency).
Nmap scan report for 129.25.194.130
Host is up (0.0070s latency).
Nmap scan report for 129.25.194.133
Host is up (0.0090s latency).
Nmap scan report for triangleshare-weekly.student-org.drexel.edu (129.25.195.217)
Host is up (0.0085s latency).
Nmap scan report for tochee2.cci.drexel.edu (129.25.202.75)
Host is up (0.012s latency).
Nmap scan report for intranet-staging.cci.drexel.edu (129.25.202.76)
Host is up (0.011s latency).
Nmap scan report for soeace.cci.drexel.edu (129.25.202.77)
Host is up (0.011s latency).
Nmap scan report for apps.cci.drexel.edu (129.25.202.78)
Host is up (0.014s latency).
Nmap scan report for hive4mat.cci.drexel.edu (129.25.202.79)
Host is up (0.027s latency).
Nmap scan report for archivalfrontiers.cci.drexel.edu (129.25.202.80)
Host is up (0.015s latency).
Nmap scan report for support.cci.drexel.edu (129.25.202.81)
Host is up (0.0053s latency).
Nmap scan report for support-staging.cci.drexel.edu (129.25.202.82)
Host is up (0.080s latency).
Nmap scan report for quad.cci.drexel.edu (129.25.202.87)
Host is up (0.0074s latency).
Nmap scan report for cloud035.cci.drexel.edu (129.25.202.135)
Host is up (0.0076s latency).
Nmap scan report for rack117.cs.drexel.edu (129.25.202.146)
Host is up (0.0079s latency).
Nmap scan report for cloud055.cci.drexel.edu (129.25.202.155)
Host is up (0.0097s latency).
Nmap scan report for rack107.cs.drexel.edu (129.25.202.175)
Host is up (0.011s latency).
Nmap scan report for cloud086.cci.drexel.edu (129.25.202.186)
Host is up (0.015s latency).
Nmap scan report for monitor.cci.drexel.edu (129.25.203.1)
Host is up (0.0084s latency).
Nmap scan report for centrecounty.cci.drexel.edu (129.25.203.43)
Host is up (0.010s latency).
Nmap scan report for linux.cci.drexel.edu (129.25.203.45)
Host is up (0.012s latency).
Nmap scan report for 129.25.203.59
Host is up (0.012s latency).
Nmap scan report for dspace1.library.drexel.edu (129.25.203.69)
Host is up (0.013s latency).
Nmap scan report for containers.library.drexel.edu (129.25.203.72)
Host is up (0.012s latency).
Nmap scan report for watersheds.cci.drexel.edu (129.25.203.75)
Host is up (0.012s latency).
Nmap scan report for h2designlab.cci.drexel.edu (129.25.203.76)
Host is up (0.011s latency).
Nmap scan report for econcs.cci.drexel.edu (129.25.203.77)
Host is up (0.011s latency).
Nmap scan report for theory.cs.drexel.edu (129.25.203.78)
Host is up (0.014s latency).
Nmap scan report for hive2.cci.drexel.edu (129.25.203.106)
Host is up (0.093s latency).
Nmap scan report for replay.drexel.edu (129.25.203.118)
Host is up (0.0068s latency).
Nmap scan report for lincs.cci.drexel.edu (129.25.203.142)
Host is up (0.010s latency).
Nmap scan report for wisdom.cci.drexel.edu (129.25.203.143)
Host is up (0.0098s latency).
Nmap scan report for bip.cci.drexel.edu (129.25.203.149)
Host is up (0.0061s latency).
Nmap scan report for inventory.library.drexel.edu (129.25.203.153)
Host is up (0.0088s latency).
Nmap scan report for vcl.cci.drexel.edu (129.25.203.161)
Host is up (0.012s latency).
Nmap scan report for cluster.ischool.drexel.edu (129.25.203.170)
Host is up (0.016s latency).
Nmap scan report for cms.cci.drexel.edu (129.25.203.178)
Host is up (0.013s latency).
Nmap scan report for cci.drexel.edu (129.25.203.190)
Host is up (0.0041s latency).
Nmap scan report for collections2.library.drexel.edu (129.25.203.191)
Host is up (0.010s latency).
Nmap scan report for apps-staging.cci.drexel.edu (129.25.203.194)
Host is up (0.011s latency).
Nmap scan report for id.cci.drexel.edu (129.25.203.195)
Host is up (0.011s latency).
Nmap scan report for gpt.cci.drexel.edu (129.25.203.197)
Host is up (0.012s latency).
Nmap scan report for is4health.cci.drexel.edu (129.25.203.247)
Host is up (0.0096s latency).
Nmap scan report for bethea.bioscience.drexel.edu (129.25.207.144)
Host is up (0.0068s latency).
Nmap scan report for fragilehedgehog.bioscience.drexel.edu (129.25.207.152)
Host is up (0.0090s latency).
Nmap scan report for dwslgrid-pub.ece.drexel.edu (129.25.219.201)
Host is up (0.062s latency).
Nmap scan report for inst-lab2-21.decc.drexel.edu (129.25.219.207)
Host is up (0.029s latency).
Nmap scan report for lcb-gl.lebow.drexel.edu (129.25.234.132)
Host is up (0.033s latency).
Nmap scan report for apps.lebow.drexel.edu (129.25.234.142)
Host is up (0.016s latency).
Nmap scan report for print.westphal.drexel.edu (129.25.234.201)
Host is up (0.013s latency).
Nmap scan report for lcbwww.lebow.drexel.edu (129.25.235.118)
Host is up (0.0046s latency).
Nmap scan report for lcb-dp1.lebow.drexel.edu (129.25.239.218)
Host is up (0.072s latency).
Nmap scan report for n1-244-18.dhcp.drexel.edu (129.25.244.18)
Host is up (0.0066s latency).
Nmap scan report for n1-245-80.dhcp.drexel.edu (129.25.245.80)
Host is up (0.0079s latency).
Nmap scan report for korman013-extronswtch.irt.drexel.edu (129.25.245.206)
Host is up (0.0089s latency).
Nmap scan report for audamx.ansp.org (129.25.254.137)
Host is up (0.0074s latency).
Nmap scan report for ans-chexcam.ansp.org (129.25.255.133)
Host is up (0.0073s latency).
Nmap scan report for algae.ansp.org (129.25.255.137)
Host is up (0.0074s latency).
Nmap scan report for ans-signage.ansp.org (129.25.255.145)
Host is up (0.0073s latency).
Nmap scan report for symbiont.ansp.org (129.25.255.148)
Host is up (0.0084s latency).
Nmap scan report for phylo.ansp.org (129.25.255.149)
Host is up (0.0083s latency).
Nmap scan report for itservices.ansp.org (129.25.255.156)
Host is up (0.0093s latency).
Nmap scan report for pms-icbg.org (129.25.255.184)
Host is up (0.0081s latency).
Nmap scan report for nexsane18-1b.ansp.org (129.25.255.189)
Host is up (0.013s latency).
Nmap scan report for nexsane18-2a.ansp.org (129.25.255.192)
Host is up (0.011s latency).
Nmap scan report for ans-chexcam2.ansp.org (129.25.255.221)
Host is up (0.039s latency).
Nmap scan report for nexsane18-3a.ansp.org (129.25.255.225)
Host is up (0.0092s latency).
# Nmap done at Thu Feb 23 22:14:28 2023 -- 65536 IP addresses (212 hosts up) scanned in 8036.76 seconds
