     	SSV:93139	10.0	https://vulners.com/seebug/SSV:93139	*EXPLOIT*
     	SAMBAISKNOWNPIPENAME	10.0	https://vulners.com/canvas/SAMBAISKNOWNPIPENAME	*EXPLOIT*
     	SAINT:C50A339EFD5B2F96051BC00F96014CAA	10.0	https://vulners.com/saint/SAINT:C50A339EFD5B2F96051BC00F96014CAA	*EXPLOIT*
     	SAINT:6FE788CBA26F517C02B44A699047593B	10.0	https://vulners.com/saint/SAINT:6FE788CBA26F517C02B44A699047593B	*EXPLOIT*
     	SAINT:3579A721D51A069C725493EA48A26E42	10.0	https://vulners.com/saint/SAINT:3579A721D51A069C725493EA48A26E42	*EXPLOIT*
     	EXPLOITPACK:11BDEE18B40708887778CCF837705185	10.0	https://vulners.com/exploitpack/EXPLOITPACK:11BDEE18B40708887778CCF837705185	*EXPLOIT*
     	CVE-2017-7494	10.0	https://vulners.com/cve/CVE-2017-7494
     	1337DAY-ID-27859	10.0	https://vulners.com/zdt/1337DAY-ID-27859	*EXPLOIT*
     	1337DAY-ID-27836	10.0	https://vulners.com/zdt/1337DAY-ID-27836	*EXPLOIT*
     	CVE-2020-25719	9.0	https://vulners.com/cve/CVE-2020-25719
     	CVE-2020-17049	9.0	https://vulners.com/cve/CVE-2020-17049
     	POSTGRESQL:CVE-2019-10164	9.0	https://vulners.com/postgresql/POSTGRESQL:CVE-2019-10164
     	PACKETSTORM:166540	9.0	https://vulners.com/packetstorm/PACKETSTORM:166540	*EXPLOIT*
     	PACKETSTORM:152757	9.0	https://vulners.com/packetstorm/PACKETSTORM:152757	*EXPLOIT*
     	CVE-2019-9193	9.0	https://vulners.com/cve/CVE-2019-9193
     	CVE-2019-10164	9.0	https://vulners.com/cve/CVE-2019-10164
     	76C6A4D7-16FA-5412-9C96-0363787A367C	9.0	https://vulners.com/githubexploit/76C6A4D7-16FA-5412-9C96-0363787A367C	*EXPLOIT*
     	27E2A12D-2B65-5A8F-B6B0-6C9A17AB25B8	9.0	https://vulners.com/githubexploit/27E2A12D-2B65-5A8F-B6B0-6C9A17AB25B8	*EXPLOIT*
     	1337DAY-ID-32662	9.0	https://vulners.com/zdt/1337DAY-ID-32662	*EXPLOIT*