		C94132FD-1FA5-5342-B6EE-0DAF45EEFFE3	6.8	https://vulners.com/githubexploit/C94132FD-1FA5-5342-B6EE-0DAF45EEFFE3	*EXPLOIT*
    	10213DBE-F683-58BB-B6D3-353173626207	6.8	https://vulners.com/githubexploit/10213DBE-F683-58BB-B6D3-353173626207	*EXPLOIT*
     	EXPLOITPACK:98FE96309F9524B8C84C508837551A19	5.8	https://vulners.com/exploitpack/EXPLOITPACK:98FE96309F9524B8C84C508837551A19	*EXPLOIT*
     	EXPLOITPACK:5330EA02EBDE345BFC9D6DDDD97F9E97	5.8	https://vulners.com/exploitpack/EXPLOITPACK:5330EA02EBDE345BFC9D6DDDD97F9E97	*EXPLOIT*
     	EDB-ID:46516	5.8	https://vulners.com/exploitdb/EDB-ID:46516	*EXPLOIT*
     	EDB-ID:46193	5.8	https://vulners.com/exploitdb/EDB-ID:46193	*EXPLOIT*
     	1337DAY-ID-32328	5.8	https://vulners.com/zdt/1337DAY-ID-32328	*EXPLOIT*
     	1337DAY-ID-32009	5.8	https://vulners.com/zdt/1337DAY-ID-32009	*EXPLOIT*
     	SSHENUM	5.0	https://vulners.com/canvas/SSHENUM	*EXPLOIT*
     	PACKETSTORM:150621	5.0	https://vulners.com/packetstorm/PACKETSTORM:150621	*EXPLOIT*
     	EXPLOITPACK:F957D7E8A0CC1E23C3C649B764E13FB0	5.0	https://vulners.com/exploitpack/EXPLOITPACK:F957D7E8A0CC1E23C3C649B764E13FB0	*EXPLOIT*
     	EXPLOITPACK:EBDBC5685E3276D648B4D14B75563283	5.0	https://vulners.com/exploitpack/EXPLOITPACK:EBDBC5685E3276D648B4D14B75563283	*EXPLOIT*
     	EDB-ID:45939	5.0	https://vulners.com/exploitdb/EDB-ID:45939	*EXPLOIT*
     	EDB-ID:45233	5.0	https://vulners.com/exploitdb/EDB-ID:45233	*EXPLOIT*
     	1337DAY-ID-31730	5.0	https://vulners.com/zdt/1337DAY-ID-31730	*EXPLOIT*
     	SSV:92580	6.9	https://vulners.com/seebug/SSV:92580	*EXPLOIT*
     	1337DAY-ID-26577	6.9	https://vulners.com/zdt/1337DAY-ID-26577	*EXPLOIT*
     	SSV:91041	5.5	https://vulners.com/seebug/SSV:91041	*EXPLOIT*
     	PACKETSTORM:140019	5.5	https://vulners.com/packetstorm/PACKETSTORM:140019	*EXPLOIT*
     	PACKETSTORM:136234	5.5	https://vulners.com/packetstorm/PACKETSTORM:136234	*EXPLOIT*
     	EXPLOITPACK:F92411A645D85F05BDBD274FD222226F	5.5	https://vulners.com/exploitpack/EXPLOITPACK:F92411A645D85F05BDBD274FD222226F	*EXPLOIT*
     	EXPLOITPACK:9F2E746846C3C623A27A441281EAD138	5.5	https://vulners.com/exploitpack/EXPLOITPACK:9F2E746846C3C623A27A441281EAD138	*EXPLOIT*
     	EXPLOITPACK:1902C998CBF9154396911926B4C3B330	5.5	https://vulners.com/exploitpack/EXPLOITPACK:1902C998CBF9154396911926B4C3B330	*EXPLOIT*
     	EDB-ID:40858	5.5	https://vulners.com/exploitdb/EDB-ID:40858	*EXPLOIT*
     	EDB-ID:40119	5.5	https://vulners.com/exploitdb/EDB-ID:40119	*EXPLOIT*
     	EXPLOITPACK:802AF3229492E147A5F09C7F2B27C6DF	4.3	https://vulners.com/exploitpack/EXPLOITPACK:802AF3229492E147A5F09C7F2B27C6DF	*EXPLOIT*
     	EXPLOITPACK:5652DDAA7FE452E19AC0DC1CD97BA3EF	4.3	https://vulners.com/exploitpack/EXPLOITPACK:5652DDAA7FE452E19AC0DC1CD97BA3EF	*EXPLOIT*
     	EDB-ID:40113	4.3	https://vulners.com/exploitdb/EDB-ID:40113	*EXPLOIT*
     	1337DAY-ID-25440	4.3	https://vulners.com/zdt/1337DAY-ID-25440	*EXPLOIT*
     	1337DAY-ID-25438	4.3	https://vulners.com/zdt/1337DAY-ID-25438	*EXPLOIT*
     	FDF3DFA1-ED74-5EE2-BF5C-BA752CA34AE8	6.8	https://vulners.com/githubexploit/FDF3DFA1-ED74-5EE2-BF5C-BA752CA34AE8	*EXPLOIT*
     	8AFB43C5-ABD4-52AD-BB19-24D7884FF2A2	6.8	https://vulners.com/githubexploit/8AFB43C5-ABD4-52AD-BB19-24D7884FF2A2	*EXPLOIT*
     	4810E2D9-AC5F-5B08-BFB3-DDAFA2F63332	6.8	https://vulners.com/githubexploit/4810E2D9-AC5F-5B08-BFB3-DDAFA2F63332	*EXPLOIT*
     	4373C92A-2755-5538-9C91-0469C995AA9B	6.8	https://vulners.com/githubexploit/4373C92A-2755-5538-9C91-0469C995AA9B	*EXPLOIT*
     	0095E929-7573-5E4A-A7FA-F6598A35E8DE	6.8	https://vulners.com/githubexploit/0095E929-7573-5E4A-A7FA-F6598A35E8DE	*EXPLOIT*
     	1337DAY-ID-33577	5.8	https://vulners.com/zdt/1337DAY-ID-33577	*EXPLOIT*
     	SSV:96537	5.0	https://vulners.com/seebug/SSV:96537	*EXPLOIT*
     	EXPLOITPACK:C8C256BE0BFF5FE1C0405CB0AA9C075D	5.0	https://vulners.com/exploitpack/EXPLOITPACK:C8C256BE0BFF5FE1C0405CB0AA9C075D	*EXPLOIT*
     	EXPLOITPACK:2666FB0676B4B582D689921651A30355	5.0	https://vulners.com/exploitpack/EXPLOITPACK:2666FB0676B4B582D689921651A30355	*EXPLOIT*
     	EDB-ID:42745	5.0	https://vulners.com/exploitdb/EDB-ID:42745	*EXPLOIT*
     	EDB-ID:40909	5.0	https://vulners.com/exploitdb/EDB-ID:40909	*EXPLOIT*
     	1337DAY-ID-28573	5.0	https://vulners.com/zdt/1337DAY-ID-28573	*EXPLOIT*
     	4013EC74-B3C1-5D95-938A-54197A58586D	4.3	https://vulners.com/githubexploit/4013EC74-B3C1-5D95-938A-54197A58586D	*EXPLOIT*
     	1337DAY-ID-33575	4.3	https://vulners.com/zdt/1337DAY-ID-33575	*EXPLOIT*
    	1337DAY-ID-35422	4.3	https://vulners.com/zdt/1337DAY-ID-35422	*EXPLOIT*
     	SSV:60427	6.9	https://vulners.com/seebug/SSV:60427	*EXPLOIT*
     	SSV:60386	6.9	https://vulners.com/seebug/SSV:60386	*EXPLOIT*
     	SSV:60069	6.9	https://vulners.com/seebug/SSV:60069	*EXPLOIT*
     	PACKETSTORM:127546	6.8	https://vulners.com/packetstorm/PACKETSTORM:127546	*EXPLOIT*
     	1337DAY-ID-22451	6.8	https://vulners.com/zdt/1337DAY-ID-22451	*EXPLOIT*
     	SSV:60788	5.1	https://vulners.com/seebug/SSV:60788	*EXPLOIT*
     	SSV:62058	5.0	https://vulners.com/seebug/SSV:62058	*EXPLOIT*
     	SSV:61874	5.0	https://vulners.com/seebug/SSV:61874	*EXPLOIT*
     	SSV:60905	4.3	https://vulners.com/seebug/SSV:60905	*EXPLOIT*
     	SSV:60657	4.3	https://vulners.com/seebug/SSV:60657	*EXPLOIT*
     	SSV:60653	4.3	https://vulners.com/seebug/SSV:60653	*EXPLOIT*
    	SSV:60345	4.3	https://vulners.com/seebug/SSV:60345	*EXPLOIT*
     	EXPLOITPACK:DAED9B9E8D259B28BF72FC7FDC4755A7	5.0	https://vulners.com/exploitpack/EXPLOITPACK:DAED9B9E8D259B28BF72FC7FDC4755A7	*EXPLOIT*
     	1337DAY-ID-26574	5.0	https://vulners.com/zdt/1337DAY-ID-26574	*EXPLOIT*
     	SSV:87152	4.3	https://vulners.com/seebug/SSV:87152	*EXPLOIT*
     	PACKETSTORM:127563	4.3	https://vulners.com/packetstorm/PACKETSTORM:127563	*EXPLOIT*
     	SSV:20993	5.0	https://vulners.com/seebug/SSV:20993	*EXPLOIT*
     	SSV:20979	5.0	https://vulners.com/seebug/SSV:20979	*EXPLOIT*
     	SSV:20969	5.0	https://vulners.com/seebug/SSV:20969	*EXPLOIT*
     	PACKETSTORM:105672	5.0	https://vulners.com/packetstorm/PACKETSTORM:105672	*EXPLOIT*
     	PACKETSTORM:105591	5.0	https://vulners.com/packetstorm/PACKETSTORM:105591	*EXPLOIT*
     	EXPLOITPACK:460143F0ACAE117DD79BD75EDFDA154B	5.0	https://vulners.com/exploitpack/EXPLOITPACK:460143F0ACAE117DD79BD75EDFDA154B	*EXPLOIT*
     	EDB-ID:17969	5.0	https://vulners.com/exploitdb/EDB-ID:17969	*EXPLOIT*
     	SSV:30024	4.6	https://vulners.com/seebug/SSV:30024	*EXPLOIT*
     	1337DAY-ID-27465	4.6	https://vulners.com/zdt/1337DAY-ID-27465	*EXPLOIT*
     	SSV:23169	4.4	https://vulners.com/seebug/SSV:23169	*EXPLOIT*
     	1337DAY-ID-27473	4.4	https://vulners.com/zdt/1337DAY-ID-27473	*EXPLOIT*
     	SSV:60345	4.3	https://vulners.com/seebug/SSV:60345	*EXPLOIT*
     	SSV:30094	4.3	https://vulners.com/seebug/SSV:30094	*EXPLOIT*
     	SSV:30056	4.3	https://vulners.com/seebug/SSV:30056	*EXPLOIT*
     	SSV:24250	4.3	https://vulners.com/seebug/SSV:24250	*EXPLOIT*
     	SSV:20934	4.3	https://vulners.com/seebug/SSV:20934	*EXPLOIT*
     	SSV:20555	4.3	https://vulners.com/seebug/SSV:20555	*EXPLOIT*
     	PACKETSTORM:109284	4.3	https://vulners.com/packetstorm/PACKETSTORM:109284	*EXPLOIT*
     	EXPLOITPACK:FDCB3D93694E48CD5EE27CE55D6801DE	4.3	https://vulners.com/exploitpack/EXPLOITPACK:FDCB3D93694E48CD5EE27CE55D6801DE	*EXPLOIT*
     	SSV:60656	5.0	https://vulners.com/seebug/SSV:60656	*EXPLOIT*
    	SSV:90447	4.6	https://vulners.com/seebug/SSV:90447	*EXPLOIT*
    	SSV:60905	4.3	https://vulners.com/seebug/SSV:60905	*EXPLOIT*
    	0095E929-7573-5E4A-A7FA-F6598A35E8DE	6.8	https://vulners.com/githubexploit/0095E929-7573-5E4A-A7FA-F6598A35E8DE	*EXPLOIT*